…
A solução mais usada é converter as planilhas Excel para `csv` usando algum programa.

Aqui vamos mostrar como usar o pacote [readxl](https://readxl.tidyverse.org/) para leitura de arquivos Excel, em ambos formatos `xls` e `xlsx`; com uma ou mais planilhas. 



```r
# install.packages("readxl")
library(readxl)
inmet_estacoes <- read_excel(
  path = "data/Estações Normal Climatoógica 1981-2010.xls", 
  col_names = TRUE, 
  skip = 3)
inmet_estacoes
#> # A tibble: 437 x 10
#>       Nº Código `Nome da Estação`   UF    Latitude Longitude Atitude
#>    <dbl>  <dbl> <chr>               <chr>    <dbl>     <dbl>   <dbl>
#>  1    1. 82704. CRUZEIRO DO SUL     AC       -7.60     -72.7   170. 
#>  2    2. 82915. RIO BRANCO          AC       -9.95     -67.9   160. 
#>  3    3. 82807. TARAUACA            AC       -8.17     -70.8   190. 
#>  4    4. 82989. AGUA BRANCA         AL       -9.28     -37.9   605. 
#>  5    5. 82995. ARAPIRACA           AL       -9.73     -36.8   247. 
#>  6    6. 82994. MACEIO              AL       -9.67     -35.7    64.5
#>  7    7. 82991. MAJOR ISIDORO       AL       -9.55     -37.0   200. 
#>  8    8. 82988. MATA GRANDE         AL       -9.12     -37.7   635. 
#>  9    9. 82992. PALMEIRA DOS INDIOS AL       -9.45     -36.7   275. 
#> 10   10. 82990. PAO DE ACUCAR       AL       -9.75     -37.4    19.1
#> # ... with 427 more rows, and 3 more variables: `Inicio Operação` <chr>,
#> #   `Fim Operação` <dttm>, Situação <chr>
…
